<svg width="40" height="23" viewBox="0 0 40 23" fill="none" xmlns="http://www.w3.org/2000/svg">
<path d="M0 11.5C0 12.4071 0.746667 13.1432 1.66667 13.1432H34.31L27.1567 20.1959C26.5067 20.8367 26.5067 21.8785 27.1567 22.5194C27.8067 23.1602 28.8633 23.1602 29.5133 22.5194L39.5133 12.6601C39.6667 12.5089 39.79 12.3282 39.8733 12.1277C39.9533 11.9272 40 11.7169 40 11.5066C40 11.5033 40 11.5033 40 11.5C40 11.2864 39.9567 11.0728 39.87 10.8723C39.7867 10.6718 39.6633 10.4911 39.51 10.3399L29.51 0.480639C28.86 -0.160213 27.8033 -0.160213 27.1533 0.480639C26.5033 1.12149 26.5033 2.16328 27.1533 2.80414L34.31 9.85679H1.66667C0.746667 9.85679 0 10.5929 0 11.5Z" fill="#171817"/>
</svg>
