<svg width="93" height="40" viewBox="0 0 93 40" fill="none" xmlns="http://www.w3.org/2000/svg">
<path fill-rule="evenodd" clip-rule="evenodd" d="M85.4268 13.1686C87.4595 12.3786 89.704 12.3092 91.7799 12.9689L92.1435 13.1468L91.8797 13.5895C90.6211 15.8509 88.5582 17.5566 86.1017 18.3682C85.3881 18.5982 84.6399 18.7154 83.8874 18.7241C82.6029 18.7111 81.3401 18.3595 80.233 17.6998V17.7042L80.1681 17.791C79.2339 18.9628 78.2305 20.0783 77.158 21.1243V21.12L76.6044 21.6321C77.6336 21.2241 78.7105 20.9507 79.8134 20.8205C80.9205 20.6989 82.0363 20.7293 83.1348 20.9116C84.1641 21.0896 85.1501 21.4672 86.0367 22.0227V22.0271L86.4562 22.2918L86.1146 22.6564C85.6735 23.1338 85.1978 23.5765 84.6961 23.9889C84.1728 24.3795 83.6192 24.718 83.0354 25.0132C81.9369 25.6078 80.7173 25.9637 79.4717 26.0462H78.9268C77.0585 26.0765 75.2507 25.3864 73.8668 24.1234V24.119L73.789 24.1972V24.1104C72.444 25.1911 71.0254 26.1807 69.5507 27.0791C70.6276 26.9359 71.7174 26.9359 72.7943 27.0791C74.9653 27.205 77.0239 28.099 78.6068 29.6008L78.9268 29.935L78.4857 30.2128C77.4088 30.9376 76.2238 31.4844 74.974 31.8317C74.1566 32.027 73.3176 32.1311 72.4743 32.1355C72.0677 32.1355 71.6612 32.1094 71.2546 32.0574C69.196 31.7622 67.3536 30.6208 66.1643 28.9107H66.0648C64.5037 29.6572 62.9035 30.3126 61.2687 30.8681C61.779 30.9159 62.285 30.9983 62.7867 31.1112C63.3403 31.2197 63.8809 31.3673 64.4129 31.5539C66.5017 32.1919 68.3095 33.5243 69.5377 35.3342V35.3299L69.8145 35.7639L69.3388 35.9549C68.0197 36.4801 66.6184 36.7535 65.2 36.7665C64.0626 36.7709 62.9338 36.5582 61.8785 36.1329C59.9237 35.4167 58.3711 33.889 57.6143 31.9445H57.5148C55.8022 32.3265 54.0679 32.6042 52.3251 32.7779C53.3933 33.0774 54.4183 33.5331 55.3567 34.1321C56.291 34.7093 57.1473 35.4124 57.8911 36.2241C58.5917 37.001 59.1323 37.9037 59.4869 38.889L59.6643 39.4228L59.1669 39.5009C58.5269 39.6051 57.8824 39.6615 57.2381 39.6659C56.5764 39.6702 55.9147 39.5964 55.2703 39.4445C54.0377 39.2145 52.8657 38.7371 51.8235 38.0426C50.1108 36.8924 48.9388 35.0869 48.5928 33.0426H48.4804V32.1225H48.5798C48.848 30.1997 49.6654 28.3942 50.9282 26.9228C51.5639 26.1328 52.3121 25.4428 53.1425 24.8655C53.8993 24.3577 54.7124 23.941 55.5687 23.6242L56.0444 23.4679L56.1093 23.9671C56.2606 24.9741 56.2304 26.0027 56.0228 27.0009C55.7978 28.0557 55.3351 29.0409 54.6691 29.8873C54.0247 30.6989 53.242 31.3803 52.3554 31.9098C54.0118 31.7406 55.6595 31.4715 57.2813 31.1112H57.4153C57.2813 29.1928 57.6619 27.2744 58.5225 25.5557C59.3918 23.7674 60.7585 22.2744 62.4537 21.2458V21.2414L62.8732 20.9984L63.0506 21.4541C63.8593 23.4116 63.829 25.6121 62.9641 27.5436C62.7305 28.0557 62.4494 28.5462 62.1207 29.0019C61.7877 29.4012 61.4158 29.7745 61.0136 30.113C62.6181 29.5704 64.1923 28.9324 65.7189 28.1989H65.8314C65.2562 26.3629 65.2129 24.3968 65.7103 22.5348C65.9222 21.5452 66.2985 20.599 66.8174 19.7353C67.2499 18.902 67.825 18.1511 68.5084 17.5131H68.5127L68.8673 17.2006L69.1311 17.5999C70.3291 19.3447 70.7832 21.4975 70.3896 23.5765C70.1517 24.6051 69.7106 25.5773 69.0965 26.4324C70.5755 25.5339 71.9983 24.5357 73.3477 23.4463C72.3789 21.7579 71.8989 19.8351 71.9638 17.8907C71.9767 16.8837 72.1151 15.8811 72.3746 14.9133C72.513 14.4705 72.686 14.0365 72.8936 13.6241C73.0709 13.1988 73.2828 12.7952 73.538 12.4133L73.8148 11.9922L74.178 12.3351C74.8916 13.0209 75.4798 13.8281 75.9166 14.7222C76.4009 15.6858 76.6518 16.7535 76.6475 17.8342C76.6518 18.867 76.4589 19.8912 76.0774 20.8553L76.535 20.4428C77.5816 19.4184 78.5633 18.3291 79.4715 17.1789V17.1745L79.558 17.0877C78.2692 15.6641 77.3912 13.9106 77.0236 12.0226C76.6258 10.1173 76.7728 8.13807 77.4431 6.31085L77.6205 5.85512L78.04 6.1112C79.878 7.15286 81.2014 8.90197 81.7074 10.955C81.8415 11.5019 81.9193 12.0617 81.9409 12.6216C81.9279 13.1035 81.8804 13.5809 81.7939 14.054C81.8715 13.9346 81.9495 13.8153 82.0278 13.6956C82.2856 13.3015 82.5461 12.9032 82.8016 12.4871C82.6934 11.4801 82.7194 10.4601 82.8708 9.45753C82.9832 8.35942 83.273 7.28737 83.7227 6.27608C84.0991 5.23442 84.6526 4.26224 85.3489 3.39853C85.9674 2.52186 86.7155 1.74491 87.5632 1.08953V1.08519L87.9957 0.74231L88.2076 1.25447C88.6271 2.29613 88.865 3.39858 88.9039 4.52269C88.865 5.73791 88.6314 6.93591 88.2162 8.07735C87.7319 9.1928 87.0615 10.2171 86.2355 11.1112C85.4743 11.8882 84.5748 12.5175 83.5887 12.9689V12.9646C83.4377 13.1928 83.288 13.4211 83.1394 13.6477L83.1372 13.6512L83.1361 13.6527L83.1357 13.6534L83.1353 13.654L83.1344 13.6553C82.9147 13.9905 82.6974 14.322 82.4816 14.6442C83.4158 14.0583 84.4018 13.5635 85.4268 13.1686ZM73.2053 15.1911H73.2009L73.2053 15.1651C72.9372 16.0636 72.7815 16.9881 72.7382 17.9212C72.682 19.6487 73.0842 21.3543 73.9146 22.8648C74.4638 22.2398 74.9223 21.541 75.2855 20.7901C75.7007 19.8743 75.9213 18.8847 75.9256 17.8778C75.9299 16.9273 75.7094 15.9941 75.2855 15.1434C74.9482 14.4837 74.5157 13.8761 74.001 13.3466C73.8843 13.5549 73.7848 13.7676 73.6896 13.9889C73.4994 14.3752 73.335 14.7788 73.2053 15.1911ZM66.4283 22.6651C66.8176 21.1027 67.5744 19.653 68.6426 18.4464C69.5249 19.909 69.8449 21.6495 69.5378 23.3335C69.127 25.1434 68.0545 26.7319 66.5277 27.7779C66.0261 26.1156 65.9915 24.3491 66.4283 22.665L66.4283 22.6651ZM59.219 25.8899V25.8856L59.221 25.8857L59.219 25.8899ZM59.221 25.8857C59.9346 24.4508 60.9891 23.211 62.2895 22.2788C62.8301 23.8977 62.7436 25.6643 62.043 27.2224C61.8397 27.6738 61.5932 28.1078 61.3034 28.5115C60.9921 28.8934 60.6461 29.2493 60.2741 29.5662C59.6427 30.1217 58.9248 30.5644 58.1463 30.8769C58.0858 29.1452 58.475 27.4264 59.2751 25.8899L59.221 25.8857ZM51.469 27.4655C52.0744 26.732 52.7794 26.0896 53.5621 25.5557C54.1373 25.1911 54.7341 24.8743 55.3569 24.6008C55.4175 25.343 55.3699 26.0939 55.2142 26.823C55.0239 27.7519 54.6217 28.6286 54.0378 29.3795C53.4281 30.1521 52.6798 30.8075 51.8236 31.3023C51.0754 31.6582 50.2753 31.9142 49.4579 32.0575C49.7174 30.3605 50.444 28.7719 51.5468 27.4655L51.469 27.4655ZM58.4232 38.7242C58.1119 38.0255 57.6924 37.3787 57.182 36.8101L57.2599 36.8102C56.542 36.0419 55.7203 35.3736 54.8164 34.8354C53.9168 34.2625 52.9394 33.8328 51.9145 33.555C51.0841 33.2642 50.2192 33.0776 49.3456 32.9995C49.6872 34.7746 50.7252 36.3328 52.2259 37.3354C53.1773 37.9647 54.2456 38.3944 55.37 38.5984C56.3733 38.8197 57.4069 38.8631 58.4232 38.7242ZM64.0801 32.3657C65.8229 32.8952 67.367 33.9369 68.5087 35.3561C66.45 36.1113 64.1926 36.1113 62.1339 35.3561C60.4516 34.7442 59.1023 33.4638 58.4017 31.8101C59.258 31.706 60.1229 31.6799 60.9792 31.732C61.5198 31.7754 62.0517 31.8579 62.575 31.9794C63.1329 32.0619 63.6778 32.1921 64.2142 32.3657L64.0801 32.3657ZM77.4869 29.844C76.0944 28.7068 74.3774 28.0341 72.5826 27.9212L72.6606 27.9126C70.7231 27.7173 68.7682 27.9777 66.9475 28.6678C68.007 30.1131 69.6028 31.0723 71.376 31.324C72.5177 31.4586 73.6725 31.3848 74.7883 31.1114C75.7441 30.8162 76.6522 30.3909 77.4869 29.844ZM79.8655 21.6669H79.8698C80.8991 21.5541 81.9371 21.5801 82.9578 21.745C83.7059 21.8752 84.4325 22.1226 85.1072 22.4785C84.7958 22.791 84.4758 23.0775 84.1557 23.3466C83.6757 23.6982 83.1697 24.0107 82.6377 24.2798C81.6344 24.831 80.5228 25.1565 79.3812 25.2346C77.595 25.3865 75.8219 24.8093 74.4682 23.6331C75.1861 23.1513 75.9646 22.7607 76.7819 22.4655C77.7939 22.0532 78.8578 21.7754 79.9477 21.6452L79.8655 21.6669ZM84.5406 6.66647C84.0951 7.59525 83.8054 8.58917 83.6756 9.60914L83.7535 9.58758C83.6497 10.3818 83.6237 11.1804 83.6756 11.979C84.4066 11.6057 85.0769 11.124 85.6607 10.5424C86.4089 9.73069 87.0187 8.7932 87.4642 7.77758C87.8231 6.75758 88.0264 5.68987 88.061 4.60914C88.0307 3.79314 87.8837 2.98583 87.6285 2.20891C87.036 2.73847 86.5084 3.33309 86.0586 3.98847C85.4055 4.79147 84.8952 5.69425 84.5406 6.66647ZM78.0188 7.16558C79.4417 8.10743 80.4623 9.54836 80.8645 11.2107C80.9856 11.6968 81.0548 12.1916 81.0764 12.6907C81.0677 13.1855 81.0115 13.6803 80.9077 14.1664C80.7564 14.991 80.4666 15.7852 80.0471 16.5101C77.8371 13.945 77.076 10.4337 78.0188 7.17858L78.0188 7.16558ZM85.9158 17.5649H85.9115L85.9806 17.5432C88.0522 16.8531 89.8166 15.4512 90.9627 13.5892C89.2026 13.1725 87.3602 13.2984 85.6693 13.9451C84.6746 14.3357 83.7188 14.8219 82.8149 15.3904C82.1013 15.8809 81.4353 16.4408 80.8212 17.0571C82.3739 17.9252 84.2206 18.1074 85.9158 17.5649Z" fill="#FFAB00"/>
<path fill-rule="evenodd" clip-rule="evenodd" d="M42.0715 26.9226C43.3387 28.3896 44.1604 30.1951 44.4285 32.1222L44.5324 32.0702V32.9903H44.4199C44.0696 35.0302 42.9019 36.8401 41.185 37.9903C40.1384 38.6847 38.9664 39.1578 37.7295 39.3878C37.0894 39.5398 36.4321 39.6135 35.7704 39.6092C35.1259 39.6049 34.4816 39.5484 33.8458 39.4443L33.3485 39.3661L33.5128 38.8887C33.8631 37.9165 34.3994 37.0224 35.0871 36.2542C35.8353 35.4338 36.6959 34.7176 37.643 34.1317C38.5944 33.5327 39.6324 33.0726 40.7222 32.7775C38.975 32.6039 37.2408 32.3261 35.5282 31.9442H35.4287C34.6459 33.9103 33.0501 35.4337 31.0564 36.1238C30.0011 36.5448 28.8723 36.7619 27.7349 36.7532C26.312 36.7445 24.9065 36.4667 23.5831 35.9459L23.1074 35.7549L23.3842 35.3209C24.6125 33.5153 26.4202 32.1829 28.5091 31.5449C29.054 31.3669 29.6162 31.228 30.1827 31.1326C30.6715 31.024 31.1731 30.9459 31.6748 30.8982C30.0401 30.347 28.4399 29.6916 26.883 28.9451H26.7835C25.5942 30.6551 23.7563 31.7923 21.702 32.0874C21.2911 32.1395 20.8802 32.1655 20.4694 32.1655C19.6304 32.1612 18.7957 32.0614 17.9783 31.8661C16.7328 31.5145 15.5477 30.9677 14.4709 30.2428L14.0297 29.965L14.393 29.6005C15.9673 28.0857 18.0302 27.1829 20.2055 27.044C21.2824 26.9008 22.3722 26.9008 23.4491 27.044C21.9744 26.1499 20.5558 25.156 19.2109 24.0796V24.1664L19.133 24.0883C17.7491 25.3557 15.9327 26.0458 14.0601 26.011H13.5195C12.2653 25.9242 11.0457 25.5683 9.94287 24.965C9.35903 24.6742 8.80546 24.3314 8.28215 23.9451C7.77611 23.5284 7.29607 23.0814 6.85494 22.5996V22.5953L6.51328 22.2307L6.93279 21.9659C7.81507 21.4104 8.7968 21.0328 9.82177 20.8548C10.9203 20.6725 12.0361 20.6422 13.1432 20.768C14.2417 20.8939 15.3228 21.1673 16.3521 21.5797L15.7986 21.0675C14.726 20.0215 13.7183 18.9061 12.7885 17.7342L12.7841 17.7298L12.7193 17.643C11.6164 18.3027 10.3536 18.6586 9.06913 18.6673C8.29502 18.663 7.52519 18.5415 6.78565 18.2984C4.33787 17.4911 2.27925 15.7896 1.02076 13.5327L1.01643 13.5284L0.752625 13.0857L1.24133 12.9208C3.32154 12.261 5.56184 12.3348 7.59445 13.1204C8.13508 13.3157 8.66269 13.5501 9.16869 13.8235C9.63821 14.044 10.0948 14.2989 10.5343 14.584C10.1471 14.0183 9.78553 13.4867 9.43252 12.9121C8.4465 12.4781 7.54696 11.8661 6.77715 11.1109C5.94248 10.2428 5.26349 9.24018 4.76182 8.14209C4.34664 7.01354 4.10878 5.82432 4.06553 4.62209C4.09581 3.47632 4.32935 2.34778 4.76182 1.28876L4.7575 1.2931L4.96942 0.780945L5.40189 1.12382C6.25383 1.7836 6.99773 2.57352 7.61617 3.4546C8.31242 4.31393 8.85735 5.28182 9.2336 6.32349C9.67906 7.33049 9.96449 8.40251 10.0769 9.5006C10.2238 10.4976 10.2412 11.5076 10.1292 12.509C10.4751 13.0644 10.808 13.5763 11.1495 14.0883C11.063 13.6239 11.0154 13.1508 11.0067 12.6777C11.024 12.1091 11.1019 11.5406 11.236 10.9894C11.7419 8.93637 13.0697 7.18291 14.9034 6.14559L15.3229 5.88951L15.5002 6.34525C16.1749 8.17692 16.3176 10.1647 15.911 12.0788C15.5434 13.9711 14.6655 15.7289 13.3724 17.1569H13.3767L13.4632 17.2437C14.3714 18.3939 15.3488 19.4876 16.3953 20.5119L16.8624 20.933C16.4775 19.9651 16.2786 18.9321 16.2872 17.8904C16.2829 16.8096 16.5338 15.7419 17.0181 14.7784C17.4678 13.8583 18.0777 13.0336 18.8216 12.3348L19.1546 12.0657L19.4313 12.4868C19.6865 12.8774 19.9071 13.2897 20.0844 13.7238C20.2876 14.136 20.465 14.5614 20.6034 14.9998C20.8801 15.9633 21.0358 16.9529 21.0704 17.9555C21.1396 19.9 20.6639 21.8228 19.6951 23.5111C21.0444 24.6005 22.4673 25.5988 23.9464 26.5015C23.3322 25.6422 22.8954 24.67 22.6532 23.6456C22.2596 21.5623 22.7138 19.4095 23.916 17.6648L24.1798 17.2654L24.5345 17.5779C25.2221 18.2159 25.8017 18.9668 26.2385 19.8002C26.7574 20.6682 27.1294 21.6144 27.3456 22.5996C27.8386 24.4572 27.7997 26.4191 27.2245 28.2549H27.3369C28.8593 28.9842 30.4292 29.6265 32.0293 30.1647C31.6531 29.8262 31.3114 29.4529 31 29.0536C30.667 28.611 30.3773 28.1335 30.1351 27.6344C29.2701 25.7029 29.2399 23.4981 30.0486 21.5449L30.2259 21.0892L30.6454 21.3323C32.2889 22.3523 33.6122 23.8149 34.4642 25.5554C35.3248 27.2742 35.7054 29.1925 35.5713 31.1109H35.7054C37.3228 31.4799 38.9619 31.7533 40.6097 31.9312C39.7232 31.4061 38.9404 30.7203 38.296 29.913C37.63 29.058 37.1716 28.0597 36.9553 27.0007C36.7478 26.0024 36.7175 24.9737 36.8689 23.9668L36.9337 23.4677L37.4095 23.6239C38.27 23.9364 39.0917 24.3488 39.8572 24.8566C40.6919 25.4339 41.4358 26.1283 42.0715 26.9226ZM17.7138 15.1426C17.2943 15.9977 17.0824 16.9395 17.0954 17.89L17.1257 17.89C17.1171 18.8882 17.316 19.8822 17.7139 20.798C18.0642 21.5532 18.5139 22.2563 19.0545 22.89C19.8806 21.371 20.2871 19.6609 20.2266 17.9334C20.1963 17.0045 20.0579 16.0844 19.8071 15.1903C19.673 14.7823 19.513 14.383 19.3184 14.0011C19.2232 13.7711 19.1151 13.5497 18.9983 13.3327C18.4836 13.8709 18.0512 14.4785 17.7138 15.1426ZM12.057 11.2234C12.4635 9.56102 13.4799 8.11569 14.9027 7.17824C15.8455 10.4335 15.0843 13.9447 12.8744 16.5098C12.4549 15.785 12.1651 14.9907 12.0138 14.166C11.9143 13.6886 11.8581 13.1981 11.8451 12.712C11.8624 12.1955 11.9316 11.6877 12.057 11.1886L12.057 11.2234ZM5.53514 7.77715C5.98498 8.81882 6.60342 9.77804 7.37322 10.6114L7.37312 10.5767C7.95703 11.1627 8.63166 11.6488 9.36687 12.022C9.41011 11.2235 9.37552 10.4249 9.25442 9.63493C9.15063 8.60627 8.88249 7.60365 8.45867 6.66615C8.10405 5.66782 7.58509 4.74335 6.91907 3.92304C6.4606 3.25893 5.92438 2.65568 5.32324 2.12182C5.06807 2.90738 4.92536 3.72772 4.89508 4.55671C4.93833 5.65471 5.15456 6.74416 5.53514 7.77715ZM6.99697 17.5688V17.5645C4.91676 16.8787 3.14356 15.4725 1.99324 13.5975C3.75337 13.1852 5.59577 13.311 7.28239 13.9534C7.79272 14.14 8.28141 14.3657 8.75711 14.6218C9.23715 14.8518 9.69991 15.1122 10.141 15.4117C10.8546 15.9065 11.5206 16.4621 12.1348 17.0784C10.5605 17.9378 8.70518 18.1027 7.00561 17.5341L6.99697 17.5688ZM37.7981 26.8224C37.9884 27.7513 38.3863 28.628 38.9701 29.3788L38.9701 29.3787C39.5972 30.1644 40.3671 30.8197 41.2407 31.3102C41.9802 31.6661 42.7673 31.9135 43.5761 32.0567C43.2993 30.3554 42.5597 28.7668 41.4396 27.4647C40.8601 26.7399 40.1811 26.1019 39.4243 25.568C38.862 25.1991 38.2695 24.8736 37.6554 24.6002C37.5905 25.3424 37.6381 26.0932 37.7981 26.8224ZM30.8871 27.2217C30.1865 25.6636 30.1 23.897 30.6449 22.2782C31.9467 23.207 32.9976 24.4439 33.7112 25.8763C34.5069 27.4214 34.8875 29.1445 34.8183 30.8763C34.0442 30.5681 33.3219 30.1297 32.6948 29.5785C32.3229 29.266 31.9812 28.9188 31.6742 28.5455C31.3714 28.1332 31.1119 27.6948 30.9 27.2347L30.8871 27.2217ZM25.4639 20.1124C25.1612 19.5134 24.7892 18.9535 24.3567 18.4457H24.3567C23.5134 19.917 23.2322 21.6445 23.5609 23.3112C23.9718 25.121 25.0444 26.7053 26.571 27.7556C27.0338 26.0933 27.0338 24.3398 26.571 22.6775C26.3462 21.766 25.9699 20.898 25.4639 20.1124ZM13.5621 25.2122C12.4247 25.134 11.3176 24.8128 10.3185 24.266C9.77792 24.0012 9.26327 23.6887 8.77892 23.3328C8.44591 23.0681 8.12588 22.7642 7.8145 22.4561C8.48917 22.1002 9.2157 21.8528 9.9639 21.7226C10.9846 21.5576 12.0225 21.5316 13.0518 21.6445C14.1157 21.7747 15.158 22.0394 16.1527 22.4431C16.9701 22.7382 17.7442 23.1288 18.4664 23.6106C17.1084 24.7912 15.331 25.3684 13.5405 25.2122L13.5621 25.2122ZM18.2243 31.1106C19.3444 31.3666 20.5035 31.4187 21.6451 31.2668L21.6237 31.2668C23.3882 31.028 24.984 30.0863 26.0522 28.6539C24.2228 27.9812 22.2637 27.7425 20.3262 27.9551C18.5314 28.068 16.8188 28.7408 15.4219 29.8779C16.2911 30.4205 17.2339 30.8371 18.2243 31.1106ZM30.8439 35.3554C28.7896 36.1106 26.5322 36.1106 24.4779 35.3554C25.624 33.9362 27.1636 32.8945 28.9064 32.3649C29.4168 32.2 29.9401 32.0698 30.4677 31.9786C30.991 31.8571 31.5187 31.7747 32.0506 31.7312C32.9112 31.6792 33.7762 31.7052 34.6325 31.8094C33.9146 33.476 32.5307 34.7607 30.8224 35.3554L30.8439 35.3554ZM37.5646 38.6106C38.6892 38.4066 39.7617 37.9726 40.7218 37.3433L40.7001 37.3431C42.2051 36.3492 43.2517 34.7868 43.5977 33.0116C42.7327 33.0854 41.885 33.2677 41.0633 33.5541C40.0297 33.8363 39.0437 34.2703 38.1398 34.8432C37.2619 35.3858 36.4618 36.0498 35.7612 36.8093C35.2509 37.3823 34.8357 38.0247 34.52 38.7234C35.532 38.8623 36.5656 38.8276 37.5646 38.6106Z" fill="#FFAB00"/>
</svg>
